…
Open a ncdf file.  Retrieve spatial-aware data for the long term mean and one of the models as anomalies. Note that content summaries of each file has been dumped.  For example,
see the dump of [sst.ROMS.2050.GOM.anom.nc](data/ncdump/sst.ROMS.2050.GOM.anom.nc.txt)

```
NC <- open_nc("sst")

# the long term mean of sst
sst_ltm <- nc_get_var(NC, var = "ctrl", month = c('Jun', 'Jul', 'Aug'), form = 'sf')
# Simple feature collection with 22078 features and 3 fields
# geometry type:  POINT
# dimension:      XY
# bbox:           xmin: -77.27542 ymin: 35.71551 xmax: -59.47327 ymax: 48.44975
# epsg (SRID):    4326
# proj4string:    +proj=longlat +datum=WGS84 +no_defs
# # A tibble: 22,078 x 4
#                geometry   Jun   Jul   Aug
#             <POINT [°]> <dbl> <dbl> <dbl>
#  1 (-70.53504 35.71551)    NA    NA    NA
#  2 (-70.47295 35.75371)    NA    NA    NA
#  3 (-70.41081 35.79188)    NA    NA    NA
#  4  (-70.3486 35.83001)    NA    NA    NA
#  5 (-70.28634 35.86812)    NA    NA    NA
#  6 (-70.22401 35.90619)    NA    NA    NA
#  7 (-70.16163 35.94423)    NA    NA    NA
#  8 (-70.09919 35.98224)    NA    NA    NA
#  9 (-70.03669 36.02022)    NA    NA    NA
# 10 (-69.97413 36.05816)    NA    NA    NA
# # … with 22,068 more rows
…
